digraph I2Clib
{
	label="I2C library call tree";
	fontname="Helvetica-Bold";
	node [ style="filled" fillcolor="whitesmoke" ];
	
	MCP23008readRegister -> StartI2C;
	MCP23008readRegister -> WriteI2C;
	MCP23008readRegister -> RestartI2C;
	MCP23008readRegister -> getI2C;
	MCP23008readRegister -> NotAckI2C;
	MCP23008readRegister -> StopI2C;

	MCP23008writeRegister -> StartI2C;
	MCP23008writeRegister -> WriteI2C;
	MCP23008writeRegister -> StopI2C;

	MCP4726writeRegister -> StartI2C; 
	MCP4726writeRegister -> WriteI2C; 
	MCP4726writeRegister -> StopI2C;   

	MB85RC16VwriteByte -> StartI2C; 
	MB85RC16VwriteByte -> WriteI2C; 
	MB85RC16VwriteByte -> ACKstatusI2C
	MB85RC16VwriteByte -> StopI2C;  
	
	MB85RC16VreadByte -> StartI2C; 
	MB85RC16VreadByte -> WriteI2C; 
	MB85RC16VreadByte -> ACKstatusI2C
	MB85RC16VreadByte -> RestartI2C;
	MB85RC16VreadByte -> getI2C;
	MB85RC16VreadByte -> StopI2C;

	getI2C -> IdleI2C;
	AckI2C -> IdleI2C;
	StartI2C -> IdleI2C;
	NotAckI2C -> IdleI2C;
	RestartI2C -> IdleI2C;
	StopI2C -> IdleI2C;
	WriteI2C -> IdleI2C;
	
	
	InitI2C;
	AckI2C;
	
/*	
  IdleI2C;
  StartI2C;
  WriteI2C;
  StopI2C;
  RestartI2C;
  getI2C;
  AckI2C;
  ACKstatusI2C;
  NotAckI2C;
  */
	}
